Case #1: 0.643750
Case #2: 0.968718
Case #3: 0.997970
Case #4: 0.918333
Case #5: 0.073395
Case #6: 0.378611
Case #7: 0.885132
Case #8: 0.999366
Case #9: 0.137154
Case #10: 0.000087
Case #11: 0.999878
Case #12: 0.993771
Case #13: 0.219785
Case #14: 0.033350
Case #15: 0.041463
Case #16: 0.210095
Case #17: 0.147069
Case #18: 0.133056
Case #19: 0.972020
Case #20: 0.516460
Case #21: 0.190897
Case #22: 0.998699
Case #23: 0.024898
Case #24: 0.981279
Case #25: 0.996774
Case #26: 0.999982
Case #27: 1.000000
Case #28: 0.920174
Case #29: 0.008349
Case #30: 0.928806
Case #31: 0.957810
Case #32: 0.106427
Case #33: 0.972052
Case #34: 0.445100
Case #35: 0.972662
Case #36: 0.138284
Case #37: 0.948273
Case #38: 0.294763
Case #39: 0.021491
Case #40: 0.081902
Case #41: 0.021392
Case #42: 0.958225
Case #43: 0.997502
Case #44: 0.222916
Case #45: 0.999249
Case #46: 0.000929
Case #47: 0.997051
Case #48: 0.110944
Case #49: 0.035690
Case #50: 0.356505
